{
  "total":15,
  "per_page":10,
  "current_page":1,
  "last_page":2,
  "data":[
    {
      "id":136243,
      "created":1630497902,
      "last_edited":1630497902,
      "first_name":"",
      "last_name":"",
      "gender":null,
      "github_user":null,
      "bio":null,
      "linked_in":null,
      "irc":null,
      "twitter":null,
      "state":null,
      "country":null,
      "active":true,
      "email_verified":true,
      "pic":"https:\/\/www.gravatar.com\/avatar\/5674bf6a44ac0132b6cc854b53102a37",
      "membership_type":"None",
      "candidate_profile_id":0,
      "company":null,
      "groups":[
        71
      ],
      "ccla_teams":[

      ],
      "affiliations":[

      ]
    },
    {
      "id":136390,
      "created":1631074259,
      "last_edited":1631074259,
      "first_name":"",
      "last_name":"",
      "gender":null,
      "github_user":null,
      "bio":null,
      "linked_in":null,
      "irc":null,
      "twitter":null,
      "state":null,
      "country":null,
      "active":true,
      "email_verified":true,
      "pic":"https:\/\/www.gravatar.com\/avatar\/dc84eec5bae6757d6605c4b2cc2fec40",
      "membership_type":"None",
      "candidate_profile_id":0,
      "company":null,
      "groups":[
        71
      ],
      "ccla_teams":[

      ],
      "affiliations":[

      ]
    },
    {
      "id":136423,
      "created":1631173842,
      "last_edited":1631173842,
      "first_name":"",
      "last_name":"",
      "gender":null,
      "github_user":null,
      "bio":null,
      "linked_in":null,
      "irc":null,
      "twitter":null,
      "state":null,
      "country":null,
      "active":true,
      "email_verified":true,
      "pic":"https:\/\/www.gravatar.com\/avatar\/902ebd1903f25113db73615f0b8d148a",
      "membership_type":"None",
      "candidate_profile_id":0,
      "company":null,
      "groups":[
        71
      ],
      "ccla_teams":[

      ],
      "affiliations":[

      ]
    },
    {
      "id":136566,
      "created":1631703179,
      "last_edited":1631703179,
      "first_name":"",
      "last_name":"",
      "gender":null,
      "github_user":null,
      "bio":null,
      "linked_in":null,
      "irc":null,
      "twitter":null,
      "state":null,
      "country":null,
      "active":true,
      "email_verified":true,
      "pic":"https:\/\/www.gravatar.com\/avatar\/bd504b9c91f8e6d9df81cef64da4f2ed",
      "membership_type":"None",
      "candidate_profile_id":0,
      "company":null,
      "groups":[
        71
      ],
      "ccla_teams":[

      ],
      "affiliations":[

      ]
    },
    {
      "id":136626,
      "created":1631927276,
      "last_edited":1631927276,
      "first_name":"",
      "last_name":"",
      "gender":null,
      "github_user":null,
      "bio":null,
      "linked_in":null,
      "irc":null,
      "twitter":null,
      "state":null,
      "country":null,
      "active":true,
      "email_verified":true,
      "pic":"https:\/\/www.gravatar.com\/avatar\/e07f8da4030ba1697cca108ab2486eed",
      "membership_type":"None",
      "candidate_profile_id":0,
      "company":null,
      "groups":[
        71
      ],
      "ccla_teams":[

      ],
      "affiliations":[

      ]
    },
    {
      "id":136747,
      "created":1632454517,
      "last_edited":1632454517,
      "first_name":"",
      "last_name":"",
      "gender":null,
      "github_user":null,
      "bio":null,
      "linked_in":null,
      "irc":null,
      "twitter":null,
      "state":null,
      "country":null,
      "active":true,
      "email_verified":true,
      "pic":"https:\/\/www.gravatar.com\/avatar\/7393dad47ab4e6f72d2ead07f65b314e",
      "membership_type":"None",
      "candidate_profile_id":0,
      "company":null,
      "groups":[
        71
      ],
      "ccla_teams":[

      ],
      "affiliations":[

      ]
    },
    {
      "id":136822,
      "created":1632846145,
      "last_edited":1632846145,
      "first_name":"",
      "last_name":"",
      "gender":null,
      "github_user":null,
      "bio":null,
      "linked_in":null,
      "irc":null,
      "twitter":null,
      "state":null,
      "country":null,
      "active":true,
      "email_verified":true,
      "pic":"https:\/\/www.gravatar.com\/avatar\/ff3ae05f65d83c1265ba020b0b46e410",
      "membership_type":"None",
      "candidate_profile_id":0,
      "company":null,
      "groups":[
        71
      ],
      "ccla_teams":[

      ],
      "affiliations":[

      ]
    },
    {
      "id":136829,
      "created":1632884507,
      "last_edited":1632884507,
      "first_name":"",
      "last_name":"",
      "gender":null,
      "github_user":null,
      "bio":null,
      "linked_in":null,
      "irc":null,
      "twitter":null,
      "state":null,
      "country":null,
      "active":true,
      "email_verified":true,
      "pic":"https:\/\/www.gravatar.com\/avatar\/f0623b8f92ffd02112379ab2647e9b60",
      "membership_type":"None",
      "candidate_profile_id":0,
      "company":null,
      "groups":[
        71
      ],
      "ccla_teams":[

      ],
      "affiliations":[

      ]
    },
    {
      "id":136832,
      "created":1632895982,
      "last_edited":1632895982,
      "first_name":"name",
      "last_name":"surname",
      "gender":null,
      "github_user":"random-gh-user",
      "bio":null,
      "linked_in":null,
      "irc":null,
      "twitter":null,
      "state":null,
      "country":null,
      "active":true,
      "email_verified":true,
      "pic":"https:\/\/www.gravatar.com\/avatar\/cd0f6f85db68e8cef64144e2072780dd",
      "membership_type":"None",
      "candidate_profile_id":0,
      "company":"MyCompany",
      "groups":[
        71
      ],
      "ccla_teams":[

      ],
      "affiliations":[

      ]
    },
    {
      "id":136853,
      "created":1632998442,
      "last_edited":1632998442,
      "first_name":"",
      "last_name":"",
      "gender":null,
      "github_user":"random-gh-user-2",
      "bio":null,
      "linked_in":null,
      "irc":null,
      "twitter":null,
      "state":null,
      "country":null,
      "active":true,
      "email_verified":true,
      "pic":"https:\/\/www.gravatar.com\/avatar\/570332ae02e00ee5457cc11d49f4015e",
      "membership_type":"None",
      "candidate_profile_id":0,
      "company":null,
      "groups":[
        71
      ],
      "ccla_teams":[

      ],
      "affiliations":[

      ]
    }
  ]
}
