{
  "total":15,
  "per_page":10,
  "current_page":2,
  "last_page":2,
  "data":[
    {
      "id":89253,
      "created":1498027687,
      "last_edited":1578365513,
      "first_name":"",
      "last_name":"",
      "gender":"Male",
      "github_user":null,
      "bio":null,
      "linked_in":null,
      "irc":null,
      "twitter":null,
      "state":"zhejiang",
      "country":"CN",
      "active":true,
      "email_verified":true,
      "pic":"https:\/\/www.gravatar.com\/avatar\/2bdc3c7c97a6843d079d5816c0775582",
      "membership_type":"Community",
      "candidate_profile_id":0,
      "company":null,
      "groups":[
        4,
        29
      ],
      "ccla_teams":[

      ],
      "affiliations":[
        {
          "id":150740,
          "created":null,
          "last_edited":null,
          "start_date":1515283200,
          "end_date":null,
          "job_title":null,
          "owner_id":89253,
          "is_current":true,
          "organization":{
            "id":5,
            "created":1359507522,
            "last_edited":1365018052,
            "name":"None"
          }
        }
      ]
    },
    {
      "id":130398,
      "created":1607979727,
      "last_edited":1628749231,
      "first_name":"",
      "last_name":"",
      "gender":null,
      "github_user":null,
      "bio":null,
      "linked_in":null,
      "irc":null,
      "twitter":null,
      "state":null,
      "country":"CN",
      "active":true,
      "email_verified":true,
      "pic":"https:\/\/www.gravatar.com\/avatar\/978c84a8c686fe7bc7fe849ff902dcbd",
      "membership_type":"Foundation",
      "candidate_profile_id":0,
      "company":null,
      "groups":[
        71,
        5,
        4
      ],
      "ccla_teams":[

      ],
      "affiliations":[

      ]
    },
    {
      "id":125525,
      "created":1600246910,
      "last_edited":1607577373,
      "first_name":"name_3",
      "last_name":"last_name_3",
      "gender":"Male",
      "github_user":null,
      "bio":null,
      "linked_in":null,
      "irc":null,
      "twitter":null,
      "state":null,
      "country":"ES",
      "active":true,
      "email_verified":false,
      "pic":"https:\/\/www.gravatar.com\/avatar\/d2b17599514d2f78cbd887001b45d886",
      "membership_type":"Foundation",
      "candidate_profile_id":0,
      "company":null,
      "groups":[
        71,
        5,
        4
      ],
      "ccla_teams":[

      ],
      "affiliations":[
        {
          "id":180467,
          "created":1600247085,
          "last_edited":1600247085,
          "start_date":1598918400,
          "end_date":null,
          "job_title":null,
          "owner_id":125525,
          "is_current":true,
          "organization":{
            "id":31730,
            "created":1576118260,
            "last_edited":1576118260,
            "name":"Technology Org"
          }
        }
      ]
    },
    {
      "id":116233,
      "created":1563953382,
      "last_edited":1670695154,
      "first_name":"name_4",
      "last_name":"last_name_4",
      "gender":"Female",
      "github_user":null,
      "bio":null,
      "linked_in":null,
      "irc":null,
      "twitter":null,
      "state":"1",
      "country":"CN",
      "active":true,
      "email_verified":true,
      "pic":"https:\/\/www.gravatar.com\/avatar\/396aa93c6d54729689a8c8a26155f898",
      "membership_type":"Community",
      "candidate_profile_id":0,
      "company":null,
      "groups":[
        4,
        29
      ],
      "ccla_teams":[

      ],
      "affiliations":[
        {
          "id":171320,
          "created":1563953383,
          "last_edited":1563953383,
          "start_date":1493596800,
          "end_date":null,
          "job_title":null,
          "owner_id":116233,
          "is_current":true,
          "organization":{
            "id":30791,
            "created":1563953382,
            "last_edited":1563953382,
            "name":"programer"
          }
        }
      ]
    },
    {
      "id":106923,
      "created":1537511799,
      "last_edited":1644083977,
      "first_name":"name_5",
      "last_name":"last_name_5",
      "gender":"Male",
      "github_user":null,
      "bio":null,
      "linked_in":null,
      "irc":null,
      "twitter":null,
      "state":"China",
      "country":"CN",
      "active":true,
      "email_verified":true,
      "pic":"https:\/\/www.gravatar.com\/avatar\/af023057b0752f2fc31d0139451f61ba",
      "membership_type":"Community",
      "candidate_profile_id":0,
      "company":null,
      "groups":[
        4,
        29
      ],
      "ccla_teams":[

      ],
      "affiliations":[
        {
          "id":161209,
          "created":1537511799,
          "last_edited":1537511799,
          "start_date":1534723200,
          "end_date":null,
          "job_title":null,
          "owner_id":106923,
          "is_current":true,
          "organization":{
            "id":21549,
            "created":1487245473,
            "last_edited":1487245473,
            "name":"Org1"
          }
        }
      ]
    }
  ]
}
